Tests for IO speed2018-08-29 16:05:33
Writing line 1
Writing line 2
Writing line 3
Writing line 4
Writing line 5
Writing line 6
Writing line 7
Writing line 8
Writing line 9
Writing line 10
Writing line 11
Writing line 12
Writing line 13
Writing line 14
Writing line 15
Writing line 16
Writing line 17
Writing line 18
Writing line 19
Writing line 20
Writing line 21
Writing line 22
Writing line 23
Writing line 24
Writing line 25
Writing line 26
Writing line 27
Writing line 28
Writing line 29
Writing line 30
Writing line 31
Writing line 32
Writing line 33
Writing line 34
Writing line 35
Writing line 36
Writing line 37
Writing line 38
Writing line 39
Writing line 40
Writing line 41
Writing line 42
Writing line 43
Writing line 44
Writing line 45
Writing line 46
Writing line 47
Writing line 48
Writing line 49
Writing line 50
Writing line 51
Writing line 52
Writing line 53
Writing line 54
Writing line 55
Writing line 56
Writing line 57
Writing line 58
Writing line 59
Writing line 60
Writing line 61
Writing line 62
Writing line 63
Writing line 64
Writing line 65
Writing line 66
Writing line 67
Writing line 68
Writing line 69
Writing line 70
Writing line 71
Writing line 72
Writing line 73
Writing line 74
Writing line 75
Writing line 76
Writing line 77
Writing line 78
Writing line 79
Writing line 80
Writing line 81
Writing line 82
Writing line 83
Writing line 84
Writing line 85
Writing line 86
Writing line 87
Writing line 88
Writing line 89
Writing line 90
Writing line 91
Writing line 92
Writing line 93
Writing line 94
Writing line 95
Writing line 96
Writing line 97
Writing line 98
Writing line 99
Writing line 100
Writing line 101
Writing line 102
Writing line 103
Writing line 104
Writing line 105
Writing line 106
Writing line 107
Writing line 108
Writing line 109
Writing line 110
Writing line 111
Writing line 112
Writing line 113
Writing line 114
Writing line 115
Writing line 116
Writing line 117
Writing line 118
Writing line 119
Writing line 120
Writing line 121
Writing line 122
Writing line 123
Writing line 124
Writing line 125
Writing line 126
Writing line 127
Writing line 128
Writing line 129
Writing line 130
Writing line 131
Writing line 132
Writing line 133
Writing line 134
Writing line 135
Writing line 136
Writing line 137
Writing line 138
Writing line 139
Writing line 140
Writing line 141
Writing line 142
Writing line 143
Writing line 144
Writing line 145
Writing line 146
Writing line 147
Writing line 148
Writing line 149
Writing line 150
Writing line 151
Writing line 152
Writing line 153
Writing line 154
Writing line 155
Writing line 156
Writing line 157
Writing line 158
Writing line 159
Writing line 160
Writing line 161
Writing line 162
Writing line 163
Writing line 164
Writing line 165
Writing line 166
Writing line 167
Writing line 168
Writing line 169
Writing line 170
Writing line 171
Writing line 172
Writing line 173
Writing line 174
Writing line 175
Writing line 176
Writing line 177
Writing line 178
Writing line 179
Writing line 180
Writing line 181
Writing line 182
Writing line 183
Writing line 184
Writing line 185
Writing line 186
Writing line 187
Writing line 188
Writing line 189
Writing line 190
Writing line 191
Writing line 192
Writing line 193
Writing line 194
Writing line 195
Writing line 196
Writing line 197
Writing line 198
Writing line 199
Writing line 200
Writing line 201
Writing line 202
Writing line 203
Writing line 204
Writing line 205
Writing line 206
Writing line 207
Writing line 208
Writing line 209
Writing line 210
Writing line 211
Writing line 212
Writing line 213
Writing line 214
Writing line 215
Writing line 216
Writing line 217
Writing line 218
Writing line 219
Writing line 220
Writing line 221
Writing line 222
Writing line 223
Writing line 224
Writing line 225
Writing line 226
Writing line 227
Writing line 228
Writing line 229
Writing line 230
Writing line 231
Writing line 232
Writing line 233
Writing line 234
Writing line 235
Writing line 236
Writing line 237
Writing line 238
Writing line 239
Writing line 240
Writing line 241
Writing line 242
Writing line 243
Writing line 244
Writing line 245
Writing line 246
Writing line 247
Writing line 248
Writing line 249
Writing line 250
Writing line 251
Writing line 252
Writing line 253
Writing line 254
Writing line 255
Writing line 256
Writing line 257
Writing line 258
Writing line 259
Writing line 260
Writing line 261
Writing line 262
Writing line 263
Writing line 264
Writing line 265
Writing line 266
Writing line 267
Writing line 268
Writing line 269
Writing line 270
Writing line 271
Writing line 272
Writing line 273
Writing line 274
Writing line 275
Writing line 276
Writing line 277
Writing line 278
Writing line 279
Writing line 280
Writing line 281
Writing line 282
Writing line 283
Writing line 284
Writing line 285
Writing line 286
Writing line 287
Writing line 288
Writing line 289
Writing line 290
Writing line 291
Writing line 292
Writing line 293
Writing line 294
Writing line 295
Writing line 296
Writing line 297
Writing line 298
Writing line 299
Writing line 300
Writing line 301
Writing line 302
Writing line 303
Writing line 304
Writing line 305
Writing line 306
Writing line 307
Writing line 308
Writing line 309
Writing line 310
Writing line 311
Writing line 312
Writing line 313
Writing line 314
Writing line 315
Writing line 316
Writing line 317
Writing line 318
Writing line 319
Writing line 320
Writing line 321
Writing line 322
Writing line 323
Writing line 324
Writing line 325
Writing line 326
Writing line 327
Writing line 328
Writing line 329
Writing line 330
Writing line 331
Writing line 332
Writing line 333
Writing line 334
Writing line 335
Writing line 336
Writing line 337
Writing line 338
Writing line 339
Writing line 340
Writing line 341
Writing line 342
Writing line 343
Writing line 344
Writing line 345
Writing line 346
Writing line 347
Writing line 348
Writing line 349
Writing line 350
Writing line 351
Writing line 352
Writing line 353
Writing line 354
Writing line 355
Writing line 356
Writing line 357
Writing line 358
Writing line 359
Writing line 360
Writing line 361
Writing line 362
Writing line 363
Writing line 364
Writing line 365
Writing line 366
Writing line 367
Writing line 368
Writing line 369
Writing line 370
Writing line 371
Writing line 372
Writing line 373
Writing line 374
Writing line 375
Writing line 376
Writing line 377
Writing line 378
Writing line 379
Writing line 380
Writing line 381
Writing line 382
Writing line 383
Writing line 384
Writing line 385
Writing line 386
Writing line 387
Writing line 388
Writing line 389
Writing line 390
Writing line 391
Writing line 392
Writing line 393
Writing line 394
Writing line 395
Writing line 396
Writing line 397
Writing line 398
Writing line 399
Writing line 400
Writing line 401
Writing line 402
Writing line 403
Writing line 404
Writing line 405
Writing line 406
Writing line 407
Writing line 408
Writing line 409
Writing line 410
Writing line 411
Writing line 412
Writing line 413
Writing line 414
Writing line 415
Writing line 416
Writing line 417
Writing line 418
Writing line 419
Writing line 420
Writing line 421
Writing line 422
Writing line 423
Writing line 424
Writing line 425
Writing line 426
Writing line 427
Writing line 428
Writing line 429
Writing line 430
Writing line 431
Writing line 432
Writing line 433
Writing line 434
Writing line 435
Writing line 436
Writing line 437
Writing line 438
Writing line 439
Writing line 440
Writing line 441
Writing line 442
Writing line 443
Writing line 444
Writing line 445
Writing line 446
Writing line 447
Writing line 448
Writing line 449
Writing line 450
Writing line 451
Writing line 452
Writing line 453
Writing line 454
Writing line 455
Writing line 456
Writing line 457
Writing line 458
Writing line 459
Writing line 460
Writing line 461
Writing line 462
Writing line 463
Writing line 464
Writing line 465
Writing line 466
Writing line 467
Writing line 468
Writing line 469
Writing line 470
Writing line 471
Writing line 472
Writing line 473
Writing line 474
Writing line 475
Writing line 476
Writing line 477
Writing line 478
Writing line 479
Writing line 480
Writing line 481
Writing line 482
Writing line 483
Writing line 484
Writing line 485
Writing line 486
Writing line 487
Writing line 488
Writing line 489
Writing line 490
Writing line 491
Writing line 492
Writing line 493
Writing line 494
Writing line 495
Writing line 496
Writing line 497
Writing line 498
Writing line 499
Writing line 500
Writing line 501
Writing line 502
Writing line 503
Writing line 504
Writing line 505
Writing line 506
Writing line 507
Writing line 508
Writing line 509
Writing line 510
Writing line 511
Writing line 512
Writing line 513
Writing line 514
Writing line 515
Writing line 516
Writing line 517
Writing line 518
Writing line 519
Writing line 520
Writing line 521
Writing line 522
Writing line 523
Writing line 524
Writing line 525
Writing line 526
Writing line 527
Writing line 528
Writing line 529
Writing line 530
Writing line 531
Writing line 532
Writing line 533
Writing line 534
Writing line 535
Writing line 536
Writing line 537
Writing line 538
Writing line 539
Writing line 540
Writing line 541
Writing line 542
Writing line 543
Writing line 544
Writing line 545
Writing line 546
Writing line 547
Writing line 548
Writing line 549
Writing line 550
Writing line 551
Writing line 552
Writing line 553
Writing line 554
Writing line 555
Writing line 556
Writing line 557
Writing line 558
Writing line 559
Writing line 560
Writing line 561
Writing line 562
Writing line 563
Writing line 564
Writing line 565
Writing line 566
Writing line 567
Writing line 568
Writing line 569
Writing line 570
Writing line 571
Writing line 572
Writing line 573
Writing line 574
Writing line 575
Writing line 576
Writing line 577
Writing line 578
Writing line 579
Writing line 580
Writing line 581
Writing line 582
Writing line 583
Writing line 584
Writing line 585
Writing line 586
Writing line 587
Writing line 588
Writing line 589
Writing line 590
Writing line 591
Writing line 592
Writing line 593
Writing line 594
Writing line 595
Writing line 596
Writing line 597
Writing line 598
Writing line 599
Writing line 600
Writing line 601
Writing line 602
Writing line 603
Writing line 604
Writing line 605
Writing line 606
Writing line 607
Writing line 608
Writing line 609
Writing line 610
Writing line 611
Writing line 612
Writing line 613
Writing line 614
Writing line 615
Writing line 616
Writing line 617
Writing line 618
Writing line 619
Writing line 620
Writing line 621
Writing line 622
Writing line 623
Writing line 624
Writing line 625
Writing line 626
Writing line 627
Writing line 628
Writing line 629
Writing line 630
Writing line 631
Writing line 632
Writing line 633
Writing line 634
Writing line 635
Writing line 636
Writing line 637
Writing line 638
Writing line 639
Writing line 640
Writing line 641
Writing line 642
Writing line 643
Writing line 644
Writing line 645
Writing line 646
Writing line 647
Writing line 648
Writing line 649
Writing line 650
Writing line 651
Writing line 652
Writing line 653
Writing line 654
Writing line 655
Writing line 656
Writing line 657
Writing line 658
Writing line 659
Writing line 660
Writing line 661
Writing line 662
Writing line 663
Writing line 664
Writing line 665
Writing line 666
Writing line 667
Writing line 668
Writing line 669
Writing line 670
Writing line 671
Writing line 672
Writing line 673
Writing line 674
Writing line 675
Writing line 676
Writing line 677
Writing line 678
Writing line 679
Writing line 680
Writing line 681
Writing line 682
Writing line 683
Writing line 684
Writing line 685
Writing line 686
Writing line 687
Writing line 688
Writing line 689
Writing line 690
Writing line 691
Writing line 692
Writing line 693
Writing line 694
Writing line 695
Writing line 696
Writing line 697
Writing line 698
Writing line 699
Writing line 700
Writing line 701
Writing line 702
Writing line 703
Writing line 704
Writing line 705
Writing line 706
Writing line 707
Writing line 708
Writing line 709
Writing line 710
Writing line 711
Writing line 712
Writing line 713
Writing line 714
Writing line 715
Writing line 716
Writing line 717
Writing line 718
Writing line 719
Writing line 720
Writing line 721
Writing line 722
Writing line 723
Writing line 724
Writing line 725
Writing line 726
Writing line 727
Writing line 728
Writing line 729
Writing line 730
Writing line 731
Writing line 732
Writing line 733
Writing line 734
Writing line 735
Writing line 736
Writing line 737
Writing line 738
Writing line 739
Writing line 740
Writing line 741
Writing line 742
Writing line 743
Writing line 744
Writing line 745
Writing line 746
Writing line 747
Writing line 748
Writing line 749
Writing line 750
Writing line 751
Writing line 752
Writing line 753
Writing line 754
Writing line 755
Writing line 756
Writing line 757
Writing line 758
Writing line 759
Writing line 760
Writing line 761
Writing line 762
Writing line 763
Writing line 764
Writing line 765
Writing line 766
Writing line 767
Writing line 768
Writing line 769
Writing line 770
Writing line 771
Writing line 772
Writing line 773
Writing line 774
Writing line 775
Writing line 776
Writing line 777
Writing line 778
Writing line 779
Writing line 780
Writing line 781
Writing line 782
Writing line 783
Writing line 784
Writing line 785
Writing line 786
Writing line 787
Writing line 788
Writing line 789
Writing line 790
Writing line 791
Writing line 792
Writing line 793
Writing line 794
Writing line 795
Writing line 796
Writing line 797
Writing line 798
Writing line 799
Writing line 800
Writing line 801
Writing line 802
Writing line 803
Writing line 804
Writing line 805
Writing line 806
Writing line 807
Writing line 808
Writing line 809
Writing line 810
Writing line 811
Writing line 812
Writing line 813
Writing line 814
Writing line 815
Writing line 816
Writing line 817
Writing line 818
Writing line 819
Writing line 820
Writing line 821
Writing line 822
Writing line 823
Writing line 824
Writing line 825
Writing line 826
Writing line 827
Writing line 828
Writing line 829
Writing line 830
Writing line 831
Writing line 832
Writing line 833
Writing line 834
Writing line 835
Writing line 836
Writing line 837
Writing line 838
Writing line 839
Writing line 840
Writing line 841
Writing line 842
Writing line 843
Writing line 844
Writing line 845
Writing line 846
Writing line 847
Writing line 848
Writing line 849
Writing line 850
Writing line 851
Writing line 852
Writing line 853
Writing line 854
Writing line 855
Writing line 856
Writing line 857
Writing line 858
Writing line 859
Writing line 860
Writing line 861
Writing line 862
Writing line 863
Writing line 864
Writing line 865
Writing line 866
Writing line 867
Writing line 868
Writing line 869
Writing line 870
Writing line 871
Writing line 872
Writing line 873
Writing line 874
Writing line 875
Writing line 876
Writing line 877
Writing line 878
Writing line 879
Writing line 880
Writing line 881
Writing line 882
Writing line 883
Writing line 884
Writing line 885
Writing line 886
Writing line 887
Writing line 888
Writing line 889
Writing line 890
Writing line 891
Writing line 892
Writing line 893
Writing line 894
Writing line 895
Writing line 896
Writing line 897
Writing line 898
Writing line 899
Writing line 900
Writing line 901
Writing line 902
Writing line 903
Writing line 904
Writing line 905
Writing line 906
Writing line 907
Writing line 908
Writing line 909
Writing line 910
Writing line 911
Writing line 912
Writing line 913
Writing line 914
Writing line 915
Writing line 916
Writing line 917
Writing line 918
Writing line 919
Writing line 920
Writing line 921
Writing line 922
Writing line 923
Writing line 924
Writing line 925
Writing line 926
Writing line 927
Writing line 928
Writing line 929
Writing line 930
Writing line 931
Writing line 932
Writing line 933
Writing line 934
Writing line 935
Writing line 936
Writing line 937
Writing line 938
Writing line 939
Writing line 940
Writing line 941
Writing line 942
Writing line 943
Writing line 944
Writing line 945
Writing line 946
Writing line 947
Writing line 948
Writing line 949
Writing line 950
Writing line 951
Writing line 952
Writing line 953
Writing line 954
Writing line 955
Writing line 956
Writing line 957
Writing line 958
Writing line 959
Writing line 960
Writing line 961
Writing line 962
Writing line 963
Writing line 964
Writing line 965
Writing line 966
Writing line 967
Writing line 968
Writing line 969
Writing line 970
Writing line 971
Writing line 972
Writing line 973
Writing line 974
Writing line 975
Writing line 976
Writing line 977
Writing line 978
Writing line 979
Writing line 980
Writing line 981
Writing line 982
Writing line 983
Writing line 984
Writing line 985
Writing line 986
Writing line 987
Writing line 988
Writing line 989
Writing line 990
Writing line 991
Writing line 992
Writing line 993
Writing line 994
Writing line 995
Writing line 996
Writing line 997
Writing line 998
Writing line 999
Writing line 1000
Writing line 1001
Writing line 1002
Writing line 1003
Writing line 1004
Writing line 1005
Writing line 1006
Writing line 1007
Writing line 1008
Writing line 1009
Writing line 1010
Writing line 1011
Writing line 1012
Writing line 1013
Writing line 1014
Writing line 1015
Writing line 1016
Writing line 1017
Writing line 1018
Writing line 1019
Writing line 1020
Writing line 1021
Writing line 1022
Writing line 1023
Writing line 1024
Writing line 1025
Writing line 1026
Writing line 1027
Writing line 1028
Writing line 1029
Writing line 1030
Writing line 1031
Writing line 1032
Writing line 1033
Writing line 1034
Writing line 1035
Writing line 1036
Writing line 1037
Writing line 1038
Writing line 1039
Writing line 1040
Writing line 1041
Writing line 1042
Writing line 1043
Writing line 1044
Writing line 1045
Writing line 1046
Writing line 1047
Writing line 1048
Writing line 1049
Writing line 1050
Writing line 1051
Writing line 1052
Writing line 1053
Writing line 1054
Writing line 1055
Writing line 1056
Writing line 1057
Writing line 1058
Writing line 1059
Writing line 1060
Writing line 1061
Writing line 1062
Writing line 1063
Writing line 1064
Writing line 1065
Writing line 1066
Writing line 1067
Writing line 1068
Writing line 1069
Writing line 1070
Writing line 1071
Writing line 1072
Writing line 1073
Writing line 1074
Writing line 1075
Writing line 1076
Writing line 1077
Writing line 1078
Writing line 1079
Writing line 1080
Writing line 1081
Writing line 1082
Writing line 1083
Writing line 1084
Writing line 1085
Writing line 1086
Writing line 1087
Writing line 1088
Writing line 1089
Writing line 1090
Writing line 1091
Writing line 1092
Writing line 1093
Writing line 1094
Writing line 1095
Writing line 1096
Writing line 1097
Writing line 1098
Writing line 1099
Writing line 1100
Writing line 1101
Writing line 1102
Writing line 1103
Writing line 1104
Writing line 1105
Writing line 1106
Writing line 1107
Writing line 1108
Writing line 1109
Writing line 1110
Writing line 1111
Writing line 1112
Writing line 1113
Writing line 1114
Writing line 1115
Writing line 1116
Writing line 1117
Writing line 1118
Writing line 1119
Writing line 1120
Writing line 1121
Writing line 1122
Writing line 1123
Writing line 1124
Writing line 1125
Writing line 1126
Writing line 1127
Writing line 1128
Writing line 1129
Writing line 1130
Writing line 1131
Writing line 1132
Writing line 1133
Writing line 1134
Writing line 1135
Writing line 1136
Writing line 1137
Writing line 1138
Writing line 1139
Writing line 1140
Writing line 1141
Writing line 1142
Writing line 1143
Writing line 1144
Writing line 1145
Writing line 1146
Writing line 1147
Writing line 1148
Writing line 1149
Writing line 1150
Writing line 1151
Writing line 1152
Writing line 1153
Writing line 1154
Writing line 1155
Writing line 1156
Writing line 1157
Writing line 1158
Writing line 1159
Writing line 1160
Writing line 1161
Writing line 1162
Writing line 1163
Writing line 1164
Writing line 1165
Writing line 1166
Writing line 1167
Writing line 1168
Writing line 1169
Writing line 1170
Writing line 1171
Writing line 1172
Writing line 1173
Writing line 1174
Writing line 1175
Writing line 1176
Writing line 1177
Writing line 1178
Writing line 1179
Writing line 1180
Writing line 1181
Writing line 1182
Writing line 1183
Writing line 1184
Writing line 1185
Writing line 1186
Writing line 1187
Writing line 1188
Writing line 1189
Writing line 1190
Writing line 1191
Writing line 1192
Writing line 1193
Writing line 1194
Writing line 1195
Writing line 1196
Writing line 1197
Writing line 1198
Writing line 1199
Writing line 1200
Writing line 1201
Writing line 1202
Writing line 1203
Writing line 1204
Writing line 1205
Writing line 1206
Writing line 1207
Writing line 1208
Writing line 1209
Writing line 1210
Writing line 1211
Writing line 1212
Writing line 1213
Writing line 1214
Writing line 1215
Writing line 1216
Writing line 1217
Writing line 1218
Writing line 1219
Writing line 1220
Writing line 1221
Writing line 1222
Writing line 1223
Writing line 1224
Writing line 1225
Writing line 1226
Writing line 1227
Writing line 1228
Writing line 1229
Writing line 1230
Writing line 1231
Writing line 1232
Writing line 1233
Writing line 1234
Writing line 1235
Writing line 1236
Writing line 1237
Writing line 1238
Writing line 1239
Writing line 1240
Writing line 1241
Writing line 1242
Writing line 1243
Writing line 1244
Writing line 1245
Writing line 1246
Writing line 1247
Writing line 1248
Writing line 1249
Writing line 1250
Writing line 1251
Writing line 1252
Writing line 1253
Writing line 1254
Writing line 1255
Writing line 1256
Writing line 1257
Writing line 1258
Writing line 1259
Writing line 1260
Writing line 1261
Writing line 1262
Writing line 1263
Writing line 1264
Writing line 1265
Writing line 1266
Writing line 1267
Writing line 1268
Writing line 1269
Writing line 1270
Writing line 1271
Writing line 1272
Writing line 1273
Writing line 1274
Writing line 1275
Writing line 1276
Writing line 1277
Writing line 1278
Writing line 1279
Writing line 1280
Writing line 1281
Writing line 1282
Writing line 1283
Writing line 1284
Writing line 1285
Writing line 1286
Writing line 1287
Writing line 1288
Writing line 1289
Writing line 1290
Writing line 1291
Writing line 1292
Writing line 1293
Writing line 1294
Writing line 1295
Writing line 1296
Writing line 1297
Writing line 1298
Writing line 1299
Writing line 1300
Writing line 1301
Writing line 1302
Writing line 1303
Writing line 1304
Writing line 1305
Writing line 1306
Writing line 1307
Writing line 1308
Writing line 1309
Writing line 1310
Writing line 1311
Writing line 1312
Writing line 1313
Writing line 1314
Writing line 1315
Writing line 1316
Writing line 1317
Writing line 1318
Writing line 1319
Writing line 1320
Writing line 1321
Writing line 1322
Writing line 1323
Writing line 1324
Writing line 1325
Writing line 1326
Writing line 1327
Writing line 1328
Writing line 1329
Writing line 1330
Writing line 1331
Writing line 1332
Writing line 1333
Writing line 1334
Writing line 1335
Writing line 1336
Writing line 1337
Writing line 1338
Writing line 1339
Writing line 1340
Writing line 1341
Writing line 1342
Writing line 1343
Writing line 1344
Writing line 1345
Writing line 1346
Writing line 1347
Writing line 1348
Writing line 1349
Writing line 1350
Writing line 1351
Writing line 1352
Writing line 1353
Writing line 1354
Writing line 1355
Writing line 1356
Writing line 1357
Writing line 1358
Writing line 1359
Writing line 1360
Writing line 1361
Writing line 1362
Writing line 1363
Writing line 1364
Writing line 1365
Writing line 1366
Writing line 1367
Writing line 1368
Writing line 1369
Writing line 1370
Writing line 1371
Writing line 1372
Writing line 1373
Writing line 1374
Writing line 1375
Writing line 1376
Writing line 1377
Writing line 1378
Writing line 1379
Writing line 1380
Writing line 1381
Writing line 1382
Writing line 1383
Writing line 1384
Writing line 1385
Writing line 1386
Writing line 1387
Writing line 1388
Writing line 1389
Writing line 1390
Writing line 1391
Writing line 1392
Writing line 1393
Writing line 1394
Writing line 1395
Writing line 1396
Writing line 1397
Writing line 1398
Writing line 1399
Writing line 1400
Writing line 1401
Writing line 1402
Writing line 1403
Writing line 1404
Writing line 1405
Writing line 1406
Writing line 1407
Writing line 1408
Writing line 1409
Writing line 1410
Writing line 1411
Writing line 1412
Writing line 1413
Writing line 1414
Writing line 1415
Writing line 1416
Writing line 1417
Writing line 1418
Writing line 1419
Writing line 1420
Writing line 1421
Writing line 1422
Writing line 1423
Writing line 1424
Writing line 1425
Writing line 1426
Writing line 1427
Writing line 1428
Writing line 1429
Writing line 1430
Writing line 1431
Writing line 1432
Writing line 1433
Writing line 1434
Writing line 1435
Writing line 1436
Writing line 1437
Writing line 1438
Writing line 1439
Writing line 1440
Writing line 1441
Writing line 1442
Writing line 1443
Writing line 1444
Writing line 1445
Writing line 1446
Writing line 1447
Writing line 1448
Writing line 1449
Writing line 1450
Writing line 1451
Writing line 1452
Writing line 1453
Writing line 1454
Writing line 1455
Writing line 1456
Writing line 1457
Writing line 1458
Writing line 1459
Writing line 1460
Writing line 1461
Writing line 1462
Writing line 1463
Writing line 1464
Writing line 1465
Writing line 1466
Writing line 1467
Writing line 1468
Writing line 1469
Writing line 1470
Writing line 1471
Writing line 1472
Writing line 1473
Writing line 1474
Writing line 1475
Writing line 1476
Writing line 1477
Writing line 1478
Writing line 1479
Writing line 1480
Writing line 1481
Writing line 1482
Writing line 1483
Writing line 1484
Writing line 1485
Writing line 1486
Writing line 1487
Writing line 1488
Writing line 1489
Writing line 1490
Writing line 1491
Writing line 1492
Writing line 1493
Writing line 1494
Writing line 1495
Writing line 1496
Writing line 1497
Writing line 1498
Writing line 1499
Writing line 1500
Writing line 1501
Writing line 1502
Writing line 1503
Writing line 1504
Writing line 1505
Writing line 1506
Writing line 1507
Writing line 1508
Writing line 1509
Writing line 1510
Writing line 1511
Writing line 1512
Writing line 1513
Writing line 1514
Writing line 1515
Writing line 1516
Writing line 1517
Writing line 1518
Writing line 1519
Writing line 1520
Writing line 1521
Writing line 1522
Writing line 1523
Writing line 1524
Writing line 1525
Writing line 1526
Writing line 1527
Writing line 1528
Writing line 1529
Writing line 1530
Writing line 1531
Writing line 1532
Writing line 1533
Writing line 1534
Writing line 1535
Writing line 1536
Writing line 1537
Writing line 1538
Writing line 1539
Writing line 1540
Writing line 1541
Writing line 1542
Writing line 1543
Writing line 1544
Writing line 1545
Writing line 1546
Writing line 1547
Writing line 1548
Writing line 1549
Writing line 1550
Writing line 1551
Writing line 1552
Writing line 1553
Writing line 1554
Writing line 1555
Writing line 1556
Writing line 1557
Writing line 1558
Writing line 1559
Writing line 1560
Writing line 1561
Writing line 1562
Writing line 1563
Writing line 1564
Writing line 1565
Writing line 1566
Writing line 1567
Writing line 1568
Writing line 1569
Writing line 1570
Writing line 1571
Writing line 1572
Writing line 1573
Writing line 1574
Writing line 1575
Writing line 1576
Writing line 1577
Writing line 1578
Writing line 1579
Writing line 1580
Writing line 1581
Writing line 1582
Writing line 1583
Writing line 1584
Writing line 1585
Writing line 1586
Writing line 1587
Writing line 1588
Writing line 1589
Writing line 1590
Writing line 1591
Writing line 1592
Writing line 1593
Writing line 1594
Writing line 1595
Writing line 1596
Writing line 1597
Writing line 1598
Writing line 1599
Writing line 1600
Writing line 1601
Writing line 1602
Writing line 1603
Writing line 1604
Writing line 1605
Writing line 1606
Writing line 1607
Writing line 1608
Writing line 1609
Writing line 1610
Writing line 1611
Writing line 1612
Writing line 1613
Writing line 1614
Writing line 1615
Writing line 1616
Writing line 1617
Writing line 1618
Writing line 1619
Writing line 1620
Writing line 1621
Writing line 1622
Writing line 1623
Writing line 1624
Writing line 1625
Writing line 1626
Writing line 1627
Writing line 1628
Writing line 1629
Writing line 1630
Writing line 1631
Writing line 1632
Writing line 1633
Writing line 1634
Writing line 1635
Writing line 1636
Writing line 1637
Writing line 1638
Writing line 1639
Writing line 1640
Writing line 1641
Writing line 1642
Writing line 1643
Writing line 1644
Writing line 1645
Writing line 1646
Writing line 1647
Writing line 1648
Writing line 1649
Writing line 1650
Writing line 1651
Writing line 1652
Writing line 1653
Writing line 1654
Writing line 1655
Writing line 1656
Writing line 1657
Writing line 1658
Writing line 1659
Writing line 1660
Writing line 1661
Writing line 1662
Writing line 1663
Writing line 1664
Writing line 1665
Writing line 1666
Writing line 1667
Writing line 1668
Writing line 1669
Writing line 1670
Writing line 1671
Writing line 1672
Writing line 1673
Writing line 1674
Writing line 1675
Writing line 1676
Writing line 1677
Writing line 1678
Writing line 1679
Writing line 1680
Writing line 1681
Writing line 1682
Writing line 1683
Writing line 1684
Writing line 1685
Writing line 1686
Writing line 1687
Writing line 1688
Writing line 1689
Writing line 1690
Writing line 1691
Writing line 1692
Writing line 1693
Writing line 1694
Writing line 1695
Writing line 1696
Writing line 1697
Writing line 1698
Writing line 1699
Writing line 1700
Writing line 1701
Writing line 1702
Writing line 1703
Writing line 1704
Writing line 1705
Writing line 1706
Writing line 1707
Writing line 1708
Writing line 1709
Writing line 1710
Writing line 1711
Writing line 1712
Writing line 1713
Writing line 1714
Writing line 1715
Writing line 1716
Writing line 1717
Writing line 1718
Writing line 1719
Writing line 1720
Writing line 1721
Writing line 1722
Writing line 1723
Writing line 1724
Writing line 1725
Writing line 1726
Writing line 1727
Writing line 1728
Writing line 1729
Writing line 1730
Writing line 1731
Writing line 1732
Writing line 1733
Writing line 1734
Writing line 1735
Writing line 1736
Writing line 1737
Writing line 1738
Writing line 1739
Writing line 1740
Writing line 1741
Writing line 1742
Writing line 1743
Writing line 1744
Writing line 1745
Writing line 1746
Writing line 1747
Writing line 1748
Writing line 1749
Writing line 1750
Writing line 1751
Writing line 1752
Writing line 1753
Writing line 1754
Writing line 1755
Writing line 1756
Writing line 1757
Writing line 1758
Writing line 1759
Writing line 1760
Writing line 1761
Writing line 1762
Writing line 1763
Writing line 1764
Writing line 1765
Writing line 1766
Writing line 1767
Writing line 1768
Writing line 1769
Writing line 1770
Writing line 1771
Writing line 1772
Writing line 1773
Writing line 1774
Writing line 1775
Writing line 1776
Writing line 1777
Writing line 1778
Writing line 1779
Writing line 1780
Writing line 1781
Writing line 1782
Writing line 1783
Writing line 1784
Writing line 1785
Writing line 1786
Writing line 1787
Writing line 1788
Writing line 1789
Writing line 1790
Writing line 1791
Writing line 1792
Writing line 1793
Writing line 1794
Writing line 1795
Writing line 1796
Writing line 1797
Writing line 1798
Writing line 1799
Writing line 1800
Writing line 1801
Writing line 1802
Writing line 1803
Writing line 1804
Writing line 1805
Writing line 1806
Writing line 1807
Writing line 1808
Writing line 1809
Writing line 1810
Writing line 1811
Writing line 1812
Writing line 1813
Writing line 1814
Writing line 1815
Writing line 1816
Writing line 1817
Writing line 1818
Writing line 1819
Writing line 1820
Writing line 1821
Writing line 1822
Writing line 1823
Writing line 1824
Writing line 1825
Writing line 1826
Writing line 1827
Writing line 1828
Writing line 1829
Writing line 1830
Writing line 1831
Writing line 1832
Writing line 1833
Writing line 1834
Writing line 1835
Writing line 1836
Writing line 1837
Writing line 1838
Writing line 1839
Writing line 1840
Writing line 1841
Writing line 1842
Writing line 1843
Writing line 1844
Writing line 1845
Writing line 1846
Writing line 1847
Writing line 1848
Writing line 1849
Writing line 1850
Writing line 1851
Writing line 1852
Writing line 1853
Writing line 1854
Writing line 1855
Writing line 1856
Writing line 1857
Writing line 1858
Writing line 1859
Writing line 1860
Writing line 1861
Writing line 1862
Writing line 1863
Writing line 1864
Writing line 1865
Writing line 1866
Writing line 1867
Writing line 1868
Writing line 1869
Writing line 1870
Writing line 1871
Writing line 1872
Writing line 1873
Writing line 1874
Writing line 1875
Writing line 1876
Writing line 1877
Writing line 1878
Writing line 1879
Writing line 1880
Writing line 1881
Writing line 1882
Writing line 1883
Writing line 1884
Writing line 1885
Writing line 1886
Writing line 1887
Writing line 1888
Writing line 1889
Writing line 1890
Writing line 1891
Writing line 1892
Writing line 1893
Writing line 1894
Writing line 1895
Writing line 1896
Writing line 1897
Writing line 1898
Writing line 1899
Writing line 1900
Writing line 1901
Writing line 1902
Writing line 1903
Writing line 1904
Writing line 1905
Writing line 1906
Writing line 1907
Writing line 1908
Writing line 1909
Writing line 1910
Writing line 1911
Writing line 1912
Writing line 1913
Writing line 1914
Writing line 1915
Writing line 1916
Writing line 1917
Writing line 1918
Writing line 1919
Writing line 1920
Writing line 1921
Writing line 1922
Writing line 1923
Writing line 1924
Writing line 1925
Writing line 1926
Writing line 1927
Writing line 1928
Writing line 1929
Writing line 1930
Writing line 1931
Writing line 1932
Writing line 1933
Writing line 1934
Writing line 1935
Writing line 1936
Writing line 1937
Writing line 1938
Writing line 1939
Writing line 1940
Writing line 1941
Writing line 1942
Writing line 1943
Writing line 1944
Writing line 1945
Writing line 1946
Writing line 1947
Writing line 1948
Writing line 1949
Writing line 1950
Writing line 1951
Writing line 1952
Writing line 1953
Writing line 1954
Writing line 1955
Writing line 1956
Writing line 1957
Writing line 1958
Writing line 1959
Writing line 1960
Writing line 1961
Writing line 1962
Writing line 1963
Writing line 1964
Writing line 1965
Writing line 1966
Writing line 1967
Writing line 1968
Writing line 1969
Writing line 1970
Writing line 1971
Writing line 1972
Writing line 1973
Writing line 1974
Writing line 1975
Writing line 1976
Writing line 1977
Writing line 1978
Writing line 1979
Writing line 1980
Writing line 1981
Writing line 1982
Writing line 1983
Writing line 1984
Writing line 1985
Writing line 1986
Writing line 1987
Writing line 1988
Writing line 1989
Writing line 1990
Writing line 1991
Writing line 1992
Writing line 1993
Writing line 1994
Writing line 1995
Writing line 1996
Writing line 1997
Writing line 1998
Writing line 1999
Writing line 2000
Writing line 2001
Writing line 2002
Writing line 2003
Writing line 2004
Writing line 2005
Writing line 2006
Writing line 2007
Writing line 2008
Writing line 2009
Writing line 2010
Writing line 2011
Writing line 2012
Writing line 2013
Writing line 2014
Writing line 2015
Writing line 2016
Writing line 2017
Writing line 2018
Writing line 2019
Writing line 2020
Writing line 2021
Writing line 2022
Writing line 2023
Writing line 2024
Writing line 2025
Writing line 2026
Writing line 2027
Writing line 2028
Writing line 2029
Writing line 2030
Writing line 2031
Writing line 2032
Writing line 2033
Writing line 2034
Writing line 2035
Writing line 2036
Writing line 2037
Writing line 2038
Writing line 2039
Writing line 2040
Writing line 2041
Writing line 2042
Writing line 2043
Writing line 2044
Writing line 2045
Writing line 2046
Writing line 2047
Writing line 2048
Writing line 2049
Writing line 2050
Writing line 2051
Writing line 2052
Writing line 2053
Writing line 2054
Writing line 2055
Writing line 2056
Writing line 2057
Writing line 2058
Writing line 2059
Writing line 2060
Writing line 2061
Writing line 2062
Writing line 2063
Writing line 2064
Writing line 2065
Writing line 2066
Writing line 2067
Writing line 2068
Writing line 2069
Writing line 2070
Writing line 2071
Writing line 2072
Writing line 2073
Writing line 2074
Writing line 2075
Writing line 2076
Writing line 2077
Writing line 2078
Writing line 2079
Writing line 2080
Writing line 2081
Writing line 2082
Writing line 2083
Writing line 2084
Writing line 2085
Writing line 2086
Writing line 2087
Writing line 2088
Writing line 2089
Writing line 2090
Writing line 2091
Writing line 2092
Writing line 2093
Writing line 2094
Writing line 2095
Writing line 2096
Writing line 2097
Writing line 2098
Writing line 2099
Writing line 2100
Writing line 2101
Writing line 2102
Writing line 2103
Writing line 2104
Writing line 2105
Writing line 2106
Writing line 2107
Writing line 2108
Writing line 2109
Writing line 2110
Writing line 2111
Writing line 2112
Writing line 2113
Writing line 2114
Writing line 2115
Writing line 2116
Writing line 2117
Writing line 2118
Writing line 2119
Writing line 2120
Writing line 2121
Writing line 2122
Writing line 2123
Writing line 2124
Writing line 2125
Writing line 2126
Writing line 2127
Writing line 2128
Writing line 2129
Writing line 2130
Writing line 2131
Writing line 2132
Writing line 2133
Writing line 2134
Writing line 2135
Writing line 2136
Writing line 2137
Writing line 2138
Writing line 2139
Writing line 2140
Writing line 2141
Writing line 2142
Writing line 2143
Writing line 2144
Writing line 2145
Writing line 2146
Writing line 2147
Writing line 2148
Writing line 2149
Writing line 2150
Writing line 2151
Writing line 2152
Writing line 2153
Writing line 2154
Writing line 2155
Writing line 2156
Writing line 2157
Writing line 2158
Writing line 2159
Writing line 2160
Writing line 2161
Writing line 2162
Writing line 2163
Writing line 2164
Writing line 2165
Writing line 2166
Writing line 2167
Writing line 2168
Writing line 2169
Writing line 2170
Writing line 2171
Writing line 2172
Writing line 2173
Writing line 2174
Writing line 2175
Writing line 2176
Writing line 2177
Writing line 2178
Writing line 2179
Writing line 2180
Writing line 2181
Writing line 2182
Writing line 2183
Writing line 2184
Writing line 2185
Writing line 2186
Writing line 2187
Writing line 2188
Writing line 2189
Writing line 2190
Writing line 2191
Writing line 2192
Writing line 2193
Writing line 2194
Writing line 2195
Writing line 2196
Writing line 2197
Writing line 2198
Writing line 2199
Writing line 2200
Writing line 2201
Writing line 2202
Writing line 2203
Writing line 2204
Writing line 2205
Writing line 2206
Writing line 2207
Writing line 2208
Writing line 2209
Writing line 2210
Writing line 2211
Writing line 2212
Writing line 2213
Writing line 2214
Writing line 2215
Writing line 2216
Writing line 2217
Writing line 2218
Writing line 2219
Writing line 2220
Writing line 2221
Writing line 2222
Writing line 2223
Writing line 2224
Writing line 2225
Writing line 2226
Writing line 2227
Writing line 2228
Writing line 2229
Writing line 2230
Writing line 2231
Writing line 2232
Writing line 2233
Writing line 2234
Writing line 2235
Writing line 2236
Writing line 2237
Writing line 2238
Writing line 2239
Writing line 2240
Writing line 2241
Writing line 2242
Writing line 2243
Writing line 2244
Writing line 2245
Writing line 2246
Writing line 2247
Writing line 2248
Writing line 2249
Writing line 2250
Writing line 2251
Writing line 2252
Writing line 2253
Writing line 2254
Writing line 2255
Writing line 2256
Writing line 2257
Writing line 2258
Writing line 2259
Writing line 2260
Writing line 2261
Writing line 2262
Writing line 2263
Writing line 2264
Writing line 2265
Writing line 2266
Writing line 2267
Writing line 2268
Writing line 2269
Writing line 2270
Writing line 2271
Writing line 2272
Writing line 2273
Writing line 2274
Writing line 2275
Writing line 2276
Writing line 2277
Writing line 2278
Writing line 2279
Writing line 2280
Writing line 2281
Writing line 2282
Writing line 2283
Writing line 2284
Writing line 2285
Writing line 2286
Writing line 2287
Writing line 2288
Writing line 2289
Writing line 2290
Writing line 2291
Writing line 2292
Writing line 2293
Writing line 2294
Writing line 2295
Writing line 2296
Writing line 2297
Writing line 2298
Writing line 2299
Writing line 2300
Writing line 2301
Writing line 2302
Writing line 2303
Writing line 2304
Writing line 2305
Writing line 2306
Writing line 2307
Writing line 2308
Writing line 2309
Writing line 2310
Writing line 2311
Writing line 2312
Writing line 2313
Writing line 2314
Writing line 2315
Writing line 2316
Writing line 2317
Writing line 2318
Writing line 2319
Writing line 2320
Writing line 2321
Writing line 2322
Writing line 2323
Writing line 2324
Writing line 2325
Writing line 2326
Writing line 2327
Writing line 2328
Writing line 2329
Writing line 2330
Writing line 2331
Writing line 2332
Writing line 2333
Writing line 2334
Writing line 2335
Writing line 2336
Writing line 2337
Writing line 2338
Writing line 2339
Writing line 2340
Writing line 2341
Writing line 2342
Writing line 2343
Writing line 2344
Writing line 2345
Writing line 2346
Writing line 2347
Writing line 2348
Writing line 2349
Writing line 2350
Writing line 2351
Writing line 2352
Writing line 2353
Writing line 2354
Writing line 2355
Writing line 2356
Writing line 2357
Writing line 2358
Writing line 2359
Writing line 2360
Writing line 2361
Writing line 2362
Writing line 2363
Writing line 2364
Writing line 2365
Writing line 2366
Writing line 2367
Writing line 2368
Writing line 2369
Writing line 2370
Writing line 2371
Writing line 2372
Writing line 2373
Writing line 2374
Writing line 2375
Writing line 2376
Writing line 2377
Writing line 2378
Writing line 2379
Writing line 2380
Writing line 2381
Writing line 2382
Writing line 2383
Writing line 2384
Writing line 2385
Writing line 2386
Writing line 2387
Writing line 2388
Writing line 2389
Writing line 2390
Writing line 2391
Writing line 2392
Writing line 2393
Writing line 2394
Writing line 2395
Writing line 2396
Writing line 2397
Writing line 2398
Writing line 2399
Writing line 2400
Writing line 2401
Writing line 2402
Writing line 2403
Writing line 2404
Writing line 2405
Writing line 2406
Writing line 2407
Writing line 2408
Writing line 2409
Writing line 2410
Writing line 2411
Writing line 2412
Writing line 2413
Writing line 2414
Writing line 2415
Writing line 2416
Writing line 2417
Writing line 2418
Writing line 2419
Writing line 2420
Writing line 2421
Writing line 2422
Writing line 2423
Writing line 2424
Writing line 2425
Writing line 2426
Writing line 2427
Writing line 2428
Writing line 2429
Writing line 2430
Writing line 2431
Writing line 2432
Writing line 2433
Writing line 2434
Writing line 2435
Writing line 2436
Writing line 2437
Writing line 2438
Writing line 2439
Writing line 2440
Writing line 2441
Writing line 2442
Writing line 2443
Writing line 2444
Writing line 2445
Writing line 2446
Writing line 2447
Writing line 2448
Writing line 2449
Writing line 2450
Writing line 2451
Writing line 2452
Writing line 2453
Writing line 2454
Writing line 2455
Writing line 2456
Writing line 2457
Writing line 2458
Writing line 2459
Writing line 2460
Writing line 2461
Writing line 2462
Writing line 2463
Writing line 2464
Writing line 2465
Writing line 2466
Writing line 2467
Writing line 2468
Writing line 2469
Writing line 2470
Writing line 2471
Writing line 2472
Writing line 2473
Writing line 2474
Writing line 2475
Writing line 2476
Writing line 2477
Writing line 2478
Writing line 2479
Writing line 2480
Writing line 2481
Writing line 2482
Writing line 2483
Writing line 2484
Writing line 2485
Writing line 2486
Writing line 2487
Writing line 2488
Writing line 2489
Writing line 2490
Writing line 2491
Writing line 2492
Writing line 2493
Writing line 2494
Writing line 2495
Writing line 2496
Writing line 2497
Writing line 2498
Writing line 2499
Writing line 2500
Writing line 2501
Writing line 2502
Writing line 2503
Writing line 2504
Writing line 2505
Writing line 2506
Writing line 2507
Writing line 2508
Writing line 2509
Writing line 2510
Writing line 2511
Writing line 2512
Writing line 2513
Writing line 2514
Writing line 2515
Writing line 2516
Writing line 2517
Writing line 2518
Writing line 2519
Writing line 2520
Writing line 2521
Writing line 2522
Writing line 2523
Writing line 2524
Writing line 2525
Writing line 2526
Writing line 2527
Writing line 2528
Writing line 2529
Writing line 2530
Writing line 2531
Writing line 2532
Writing line 2533
Writing line 2534
Writing line 2535
Writing line 2536
Writing line 2537
Writing line 2538
Writing line 2539
Writing line 2540
Writing line 2541
Writing line 2542
Writing line 2543
Writing line 2544
Writing line 2545
Writing line 2546
Writing line 2547
Writing line 2548
Writing line 2549
Writing line 2550
Writing line 2551
Writing line 2552
Writing line 2553
Writing line 2554
Writing line 2555
Writing line 2556
Writing line 2557
Writing line 2558
Writing line 2559
Writing line 2560
Writing line 2561
Writing line 2562
Writing line 2563
Writing line 2564
Writing line 2565
Writing line 2566
Writing line 2567
Writing line 2568
Writing line 2569
Writing line 2570
Writing line 2571
Writing line 2572
Writing line 2573
Writing line 2574
Writing line 2575
Writing line 2576
Writing line 2577
Writing line 2578
Writing line 2579
Writing line 2580
Writing line 2581
Writing line 2582
Writing line 2583
Writing line 2584
Writing line 2585
Writing line 2586
Writing line 2587
Writing line 2588
Writing line 2589
Writing line 2590
Writing line 2591
Writing line 2592
Writing line 2593
Writing line 2594
Writing line 2595
Writing line 2596
Writing line 2597
Writing line 2598
Writing line 2599
Writing line 2600
Writing line 2601
Writing line 2602
Writing line 2603
Writing line 2604
Writing line 2605
Writing line 2606
Writing line 2607
Writing line 2608
Writing line 2609
Writing line 2610
Writing line 2611
Writing line 2612
Writing line 2613
Writing line 2614
Writing line 2615
Writing line 2616
Writing line 2617
Writing line 2618
Writing line 2619
Writing line 2620
Writing line 2621
Writing line 2622
Writing line 2623
Writing line 2624
Writing line 2625
Writing line 2626
Writing line 2627
Writing line 2628
Writing line 2629
Writing line 2630
Writing line 2631
Writing line 2632
Writing line 2633
Writing line 2634
Writing line 2635
Writing line 2636
Writing line 2637
Writing line 2638
Writing line 2639
Writing line 2640
Writing line 2641
Writing line 2642
Writing line 2643
Writing line 2644
Writing line 2645
Writing line 2646
Writing line 2647
Writing line 2648
Writing line 2649
Writing line 2650
Writing line 2651
Writing line 2652
Writing line 2653
Writing line 2654
Writing line 2655
Writing line 2656
Writing line 2657
Writing line 2658
Writing line 2659
Writing line 2660
Writing line 2661
Writing line 2662
Writing line 2663
Writing line 2664
Writing line 2665
Writing line 2666
Writing line 2667
Writing line 2668
Writing line 2669
Writing line 2670
Writing line 2671
Writing line 2672
Writing line 2673
Writing line 2674
Writing line 2675
Writing line 2676
Writing line 2677
Writing line 2678
Writing line 2679
Writing line 2680
Writing line 2681
Writing line 2682
Writing line 2683
Writing line 2684
Writing line 2685
Writing line 2686
Writing line 2687
Writing line 2688
Writing line 2689
Writing line 2690
Writing line 2691
Writing line 2692
Writing line 2693
Writing line 2694
Writing line 2695
Writing line 2696
Writing line 2697
Writing line 2698
Writing line 2699
Writing line 2700
Writing line 2701
Writing line 2702
Writing line 2703
Writing line 2704
Writing line 2705
Writing line 2706
Writing line 2707
Writing line 2708
Writing line 2709
Writing line 2710
Writing line 2711
Writing line 2712
Writing line 2713
Writing line 2714
Writing line 2715
Writing line 2716
Writing line 2717
Writing line 2718
Writing line 2719
Writing line 2720
Writing line 2721
Writing line 2722
Writing line 2723
Writing line 2724
Writing line 2725
Writing line 2726
Writing line 2727
Writing line 2728
Writing line 2729
Writing line 2730
Writing line 2731
Writing line 2732
Writing line 2733
Writing line 2734
Writing line 2735
Writing line 2736
Writing line 2737
Writing line 2738
Writing line 2739
Writing line 2740
Writing line 2741
Writing line 2742
Writing line 2743
Writing line 2744
Writing line 2745
Writing line 2746
Writing line 2747
Writing line 2748
Writing line 2749
Writing line 2750
Writing line 2751
Writing line 2752
Writing line 2753
Writing line 2754
Writing line 2755
Writing line 2756
Writing line 2757
Writing line 2758
Writing line 2759
Writing line 2760
Writing line 2761
Writing line 2762
Writing line 2763
Writing line 2764
Writing line 2765
Writing line 2766
Writing line 2767
Writing line 2768
Writing line 2769
Writing line 2770
Writing line 2771
Writing line 2772
Writing line 2773
Writing line 2774
Writing line 2775
Writing line 2776
Writing line 2777
Writing line 2778
Writing line 2779
Writing line 2780
Writing line 2781
Writing line 2782
Writing line 2783
Writing line 2784
Writing line 2785
Writing line 2786
Writing line 2787
Writing line 2788
Writing line 2789
Writing line 2790
Writing line 2791
Writing line 2792
Writing line 2793
Writing line 2794
Writing line 2795
Writing line 2796
Writing line 2797
Writing line 2798
Writing line 2799
Writing line 2800
Writing line 2801
Writing line 2802
Writing line 2803
Writing line 2804
Writing line 2805
Writing line 2806
Writing line 2807
Writing line 2808
Writing line 2809
Writing line 2810
Writing line 2811
Writing line 2812
Writing line 2813
Writing line 2814
Writing line 2815
Writing line 2816
Writing line 2817
Writing line 2818
Writing line 2819
Writing line 2820
Writing line 2821
Writing line 2822
Writing line 2823
Writing line 2824
Writing line 2825
Writing line 2826
Writing line 2827
Writing line 2828
Writing line 2829
Writing line 2830
Writing line 2831
Writing line 2832
Writing line 2833
Writing line 2834
Writing line 2835
Writing line 2836
Writing line 2837
Writing line 2838
Writing line 2839
Writing line 2840
Writing line 2841
Writing line 2842
Writing line 2843
Writing line 2844
Writing line 2845
Writing line 2846
Writing line 2847
Writing line 2848
Writing line 2849
Writing line 2850
Writing line 2851
Writing line 2852
Writing line 2853
Writing line 2854
Writing line 2855
Writing line 2856
Writing line 2857
Writing line 2858
Writing line 2859
Writing line 2860
Writing line 2861
Writing line 2862
Writing line 2863
Writing line 2864
Writing line 2865
Writing line 2866
Writing line 2867
Writing line 2868
Writing line 2869
Writing line 2870
Writing line 2871
Writing line 2872
Writing line 2873
Writing line 2874
Writing line 2875
Writing line 2876
Writing line 2877
Writing line 2878
Writing line 2879
Writing line 2880
Writing line 2881
Writing line 2882
Writing line 2883
Writing line 2884
Writing line 2885
Writing line 2886
Writing line 2887
Writing line 2888
Writing line 2889
Writing line 2890
Writing line 2891
Writing line 2892
Writing line 2893
Writing line 2894
Writing line 2895
Writing line 2896
Writing line 2897
Writing line 2898
Writing line 2899
Writing line 2900
Writing line 2901
Writing line 2902
Writing line 2903
Writing line 2904
Writing line 2905
Writing line 2906
Writing line 2907
Writing line 2908
Writing line 2909
Writing line 2910
Writing line 2911
Writing line 2912
Writing line 2913
Writing line 2914
Writing line 2915
Writing line 2916
Writing line 2917
Writing line 2918
Writing line 2919
Writing line 2920
Writing line 2921
Writing line 2922
Writing line 2923
Writing line 2924
Writing line 2925
Writing line 2926
Writing line 2927
Writing line 2928
Writing line 2929
Writing line 2930
Writing line 2931
Writing line 2932
Writing line 2933
Writing line 2934
Writing line 2935
Writing line 2936
Writing line 2937
Writing line 2938
Writing line 2939
Writing line 2940
Writing line 2941
Writing line 2942
Writing line 2943
Writing line 2944
Writing line 2945
Writing line 2946
Writing line 2947
Writing line 2948
Writing line 2949
Writing line 2950
Writing line 2951
Writing line 2952
Writing line 2953
Writing line 2954
Writing line 2955
Writing line 2956
Writing line 2957
Writing line 2958
Writing line 2959
Writing line 2960
Writing line 2961
Writing line 2962
Writing line 2963
Writing line 2964
Writing line 2965
Writing line 2966
Writing line 2967
Writing line 2968
Writing line 2969
Writing line 2970
Writing line 2971
Writing line 2972
Writing line 2973
Writing line 2974
Writing line 2975
Writing line 2976
Writing line 2977
Writing line 2978
Writing line 2979
Writing line 2980
Writing line 2981
Writing line 2982
Writing line 2983
Writing line 2984
Writing line 2985
Writing line 2986
Writing line 2987
Writing line 2988
Writing line 2989
Writing line 2990
Writing line 2991
Writing line 2992
Writing line 2993
Writing line 2994
Writing line 2995
Writing line 2996
Writing line 2997
Writing line 2998
Writing line 2999
Writing line 3000
Writing line 3001
Writing line 3002
Writing line 3003
Writing line 3004
Writing line 3005
Writing line 3006
Writing line 3007
Writing line 3008
Writing line 3009
Writing line 3010
Writing line 3011
Writing line 3012
Writing line 3013
Writing line 3014
Writing line 3015
Writing line 3016
Writing line 3017
Writing line 3018
Writing line 3019
Writing line 3020
Writing line 3021
Writing line 3022
Writing line 3023
Writing line 3024
Writing line 3025
Writing line 3026
Writing line 3027
Writing line 3028
Writing line 3029
Writing line 3030
Writing line 3031
Writing line 3032
Writing line 3033
Writing line 3034
Writing line 3035
Writing line 3036
Writing line 3037
Writing line 3038
Writing line 3039
Writing line 3040
Writing line 3041
Writing line 3042
Writing line 3043
Writing line 3044
Writing line 3045
Writing line 3046
Writing line 3047
Writing line 3048
Writing line 3049
Writing line 3050
Writing line 3051
Writing line 3052
Writing line 3053
Writing line 3054
Writing line 3055
Writing line 3056
Writing line 3057
Writing line 3058
Writing line 3059
Writing line 3060
Writing line 3061
Writing line 3062
Writing line 3063
Writing line 3064
Writing line 3065
Writing line 3066
Writing line 3067
Writing line 3068
Writing line 3069
Writing line 3070
Writing line 3071
Writing line 3072
Writing line 3073
Writing line 3074
Writing line 3075
Writing line 3076
Writing line 3077
Writing line 3078
Writing line 3079
Writing line 3080
Writing line 3081
Writing line 3082
Writing line 3083
Writing line 3084
Writing line 3085
Writing line 3086
Writing line 3087
Writing line 3088
Writing line 3089
Writing line 3090
Writing line 3091
Writing line 3092
Writing line 3093
Writing line 3094
Writing line 3095
Writing line 3096
Writing line 3097
Writing line 3098
Writing line 3099
Writing line 3100
Writing line 3101
Writing line 3102
Writing line 3103
Writing line 3104
Writing line 3105
Writing line 3106
Writing line 3107
Writing line 3108
Writing line 3109
Writing line 3110
Writing line 3111
Writing line 3112
Writing line 3113
Writing line 3114
Writing line 3115
Writing line 3116
Writing line 3117
Writing line 3118
Writing line 3119
Writing line 3120
Writing line 3121
Writing line 3122
Writing line 3123
Writing line 3124
Writing line 3125
Writing line 3126
Writing line 3127
Writing line 3128
Writing line 3129
Writing line 3130
Writing line 3131
Writing line 3132
Writing line 3133
Writing line 3134
Writing line 3135
Writing line 3136
Writing line 3137
Writing line 3138
Writing line 3139
Writing line 3140
Writing line 3141
Writing line 3142
Writing line 3143
Writing line 3144
Writing line 3145
Writing line 3146
Writing line 3147
Writing line 3148
Writing line 3149
Writing line 3150
Writing line 3151
Writing line 3152
Writing line 3153
Writing line 3154
Writing line 3155
Writing line 3156
Writing line 3157
Writing line 3158
Writing line 3159
Writing line 3160
Writing line 3161
Writing line 3162
Writing line 3163
Writing line 3164
Writing line 3165
Writing line 3166
Writing line 3167
Writing line 3168
Writing line 3169
Writing line 3170
Writing line 3171
Writing line 3172
Writing line 3173
Writing line 3174
Writing line 3175
Writing line 3176
Writing line 3177
Writing line 3178
Writing line 3179
Writing line 3180
Writing line 3181
Writing line 3182
Writing line 3183
Writing line 3184
Writing line 3185
Writing line 3186
Writing line 3187
Writing line 3188
Writing line 3189
Writing line 3190
Writing line 3191
Writing line 3192
Writing line 3193
Writing line 3194
Writing line 3195
Writing line 3196
Writing line 3197
Writing line 3198
Writing line 3199
Writing line 3200
Writing line 3201
Writing line 3202
Writing line 3203
Writing line 3204
Writing line 3205
Writing line 3206
Writing line 3207
Writing line 3208
Writing line 3209
Writing line 3210
Writing line 3211
Writing line 3212
Writing line 3213
Writing line 3214
Writing line 3215
Writing line 3216
Writing line 3217
Writing line 3218
Writing line 3219
Writing line 3220
Writing line 3221
Writing line 3222
Writing line 3223
Writing line 3224
Writing line 3225
Writing line 3226
Writing line 3227
Writing line 3228
Writing line 3229
Writing line 3230
Writing line 3231
Writing line 3232
Writing line 3233
Writing line 3234
Writing line 3235
Writing line 3236
Writing line 3237
Writing line 3238
Writing line 3239
Writing line 3240
Writing line 3241
Writing line 3242
Writing line 3243
Writing line 3244
Writing line 3245
Writing line 3246
Writing line 3247
Writing line 3248
Writing line 3249
Writing line 3250
Writing line 3251
Writing line 3252
Writing line 3253
Writing line 3254
Writing line 3255
Writing line 3256
Writing line 3257
Writing line 3258
Writing line 3259
Writing line 3260
Writing line 3261
Writing line 3262
Writing line 3263
Writing line 3264
Writing line 3265
Writing line 3266
Writing line 3267
Writing line 3268
Writing line 3269
Writing line 3270
Writing line 3271
Writing line 3272
Writing line 3273
Writing line 3274
Writing line 3275
Writing line 3276
Writing line 3277
Writing line 3278
Writing line 3279
Writing line 3280
Writing line 3281
Writing line 3282
Writing line 3283
Writing line 3284
Writing line 3285
Writing line 3286
Writing line 3287
Writing line 3288
Writing line 3289
Writing line 3290
Writing line 3291
Writing line 3292
Writing line 3293
Writing line 3294
Writing line 3295
Writing line 3296
Writing line 3297
Writing line 3298
Writing line 3299
Writing line 3300
Writing line 3301
Writing line 3302
Writing line 3303
Writing line 3304
Writing line 3305
Writing line 3306
Writing line 3307
Writing line 3308
Writing line 3309
Writing line 3310
Writing line 3311
Writing line 3312
Writing line 3313
Writing line 3314
Writing line 3315
Writing line 3316
Writing line 3317
Writing line 3318
Writing line 3319
Writing line 3320
Writing line 3321
Writing line 3322
Writing line 3323
Writing line 3324
Writing line 3325
Writing line 3326
Writing line 3327
Writing line 3328
Writing line 3329
Writing line 3330
Writing line 3331
Writing line 3332
Writing line 3333
Writing line 3334
Writing line 3335
Writing line 3336
Writing line 3337
Writing line 3338
Writing line 3339
Writing line 3340
Writing line 3341
Writing line 3342
Writing line 3343
Writing line 3344
Writing line 3345
Writing line 3346
Writing line 3347
Writing line 3348
Writing line 3349
Writing line 3350
Writing line 3351
Writing line 3352
Writing line 3353
Writing line 3354
Writing line 3355
Writing line 3356
Writing line 3357
Writing line 3358
Writing line 3359
Writing line 3360
Writing line 3361
Writing line 3362
Writing line 3363
Writing line 3364
Writing line 3365
Writing line 3366
Writing line 3367
Writing line 3368
Writing line 3369
Writing line 3370
Writing line 3371
Writing line 3372
Writing line 3373
Writing line 3374
Writing line 3375
Writing line 3376
Writing line 3377
Writing line 3378
Writing line 3379
Writing line 3380
Writing line 3381
Writing line 3382
Writing line 3383
Writing line 3384
Writing line 3385
Writing line 3386
Writing line 3387
Writing line 3388
Writing line 3389
Writing line 3390
Writing line 3391
Writing line 3392
Writing line 3393
Writing line 3394
Writing line 3395
Writing line 3396
Writing line 3397
Writing line 3398
Writing line 3399
Writing line 3400
Writing line 3401
Writing line 3402
Writing line 3403
Writing line 3404
Writing line 3405
Writing line 3406
Writing line 3407
Writing line 3408
Writing line 3409
Writing line 3410
Writing line 3411
Writing line 3412
Writing line 3413
Writing line 3414
Writing line 3415
Writing line 3416
Writing line 3417
Writing line 3418
Writing line 3419
Writing line 3420
Writing line 3421
Writing line 3422
Writing line 3423
Writing line 3424
Writing line 3425
Writing line 3426
Writing line 3427
Writing line 3428
Writing line 3429
Writing line 3430
Writing line 3431
Writing line 3432
Writing line 3433
Writing line 3434
Writing line 3435
Writing line 3436
Writing line 3437
Writing line 3438
Writing line 3439
Writing line 3440
Writing line 3441
Writing line 3442
Writing line 3443
Writing line 3444
Writing line 3445
Writing line 3446
Writing line 3447
Writing line 3448
Writing line 3449
Writing line 3450
Writing line 3451
Writing line 3452
Writing line 3453
Writing line 3454
Writing line 3455
Writing line 3456
Writing line 3457
Writing line 3458
Writing line 3459
Writing line 3460
Writing line 3461
Writing line 3462
Writing line 3463
Writing line 3464
Writing line 3465
Writing line 3466
Writing line 3467
Writing line 3468
Writing line 3469
Writing line 3470
Writing line 3471
Writing line 3472
Writing line 3473
Writing line 3474
Writing line 3475
Writing line 3476
Writing line 3477
Writing line 3478
Writing line 3479
Writing line 3480
Writing line 3481
Writing line 3482
Writing line 3483
Writing line 3484
Writing line 3485
Writing line 3486
Writing line 3487
Writing line 3488
Writing line 3489
Writing line 3490
Writing line 3491
Writing line 3492
Writing line 3493
Writing line 3494
Writing line 3495
Writing line 3496
Writing line 3497
Writing line 3498
Writing line 3499
Writing line 3500
Writing line 3501
Writing line 3502
Writing line 3503
Writing line 3504
Writing line 3505
Writing line 3506
Writing line 3507
Writing line 3508
Writing line 3509
Writing line 3510
Writing line 3511
Writing line 3512
Writing line 3513
Writing line 3514
Writing line 3515
Writing line 3516
Writing line 3517
Writing line 3518
Writing line 3519
Writing line 3520
Writing line 3521
Writing line 3522
Writing line 3523
Writing line 3524
Writing line 3525
Writing line 3526
Writing line 3527
Writing line 3528
Writing line 3529
Writing line 3530
Writing line 3531
Writing line 3532
Writing line 3533
Writing line 3534
Writing line 3535
Writing line 3536
Writing line 3537
Writing line 3538
Writing line 3539
Writing line 3540
Writing line 3541
Writing line 3542
Writing line 3543
Writing line 3544
Writing line 3545
Writing line 3546
Writing line 3547
Writing line 3548
Writing line 3549
Writing line 3550
Writing line 3551
Writing line 3552
Writing line 3553
Writing line 3554
Writing line 3555
Writing line 3556
Writing line 3557
Writing line 3558
Writing line 3559
Writing line 3560
Writing line 3561
Writing line 3562
Writing line 3563
Writing line 3564
Writing line 3565
Writing line 3566
Writing line 3567
Writing line 3568
Writing line 3569
Writing line 3570
Writing line 3571
Writing line 3572
Writing line 3573
Writing line 3574
Writing line 3575
Writing line 3576
Writing line 3577
Writing line 3578
Writing line 3579
Writing line 3580
Writing line 3581
Writing line 3582
Writing line 3583
Writing line 3584
Writing line 3585
Writing line 3586
Writing line 3587
Writing line 3588
Writing line 3589
Writing line 3590
Writing line 3591
Writing line 3592
Writing line 3593
Writing line 3594
Writing line 3595
Writing line 3596
Writing line 3597
Writing line 3598
Writing line 3599
Writing line 3600
Writing line 3601
Writing line 3602
Writing line 3603
Writing line 3604
Writing line 3605
Writing line 3606
Writing line 3607
Writing line 3608
Writing line 3609
Writing line 3610
Writing line 3611
Writing line 3612
Writing line 3613
Writing line 3614
Writing line 3615
Writing line 3616
Writing line 3617
Writing line 3618
Writing line 3619
Writing line 3620
Writing line 3621
Writing line 3622
Writing line 3623
Writing line 3624
Writing line 3625
Writing line 3626
Writing line 3627
Writing line 3628
Writing line 3629
Writing line 3630
Writing line 3631
Writing line 3632
Writing line 3633
Writing line 3634
Writing line 3635
Writing line 3636
Writing line 3637
Writing line 3638
Writing line 3639
Writing line 3640
Writing line 3641
Writing line 3642
Writing line 3643
Writing line 3644
Writing line 3645
Writing line 3646
Writing line 3647
Writing line 3648
Writing line 3649
Writing line 3650
Writing line 3651
Writing line 3652
Writing line 3653
Writing line 3654
Writing line 3655
Writing line 3656
Writing line 3657
Writing line 3658
Writing line 3659
Writing line 3660
Writing line 3661
Writing line 3662
Writing line 3663
Writing line 3664
Writing line 3665
Writing line 3666
Writing line 3667
Writing line 3668
Writing line 3669
Writing line 3670
Writing line 3671
Writing line 3672
Writing line 3673
Writing line 3674
Writing line 3675
Writing line 3676
Writing line 3677
Writing line 3678
Writing line 3679
Writing line 3680
Writing line 3681
Writing line 3682
Writing line 3683
Writing line 3684
Writing line 3685
Writing line 3686
Writing line 3687
Writing line 3688
Writing line 3689
Writing line 3690
Writing line 3691
Writing line 3692
Writing line 3693
Writing line 3694
Writing line 3695
Writing line 3696
Writing line 3697
Writing line 3698
Writing line 3699
Writing line 3700
Writing line 3701
Writing line 3702
Writing line 3703
Writing line 3704
Writing line 3705
Writing line 3706
Writing line 3707
Writing line 3708
Writing line 3709
Writing line 3710
Writing line 3711
Writing line 3712
Writing line 3713
Writing line 3714
Writing line 3715
Writing line 3716
Writing line 3717
Writing line 3718
Writing line 3719
Writing line 3720
Writing line 3721
Writing line 3722
Writing line 3723
Writing line 3724
Writing line 3725
Writing line 3726
Writing line 3727
Writing line 3728
Writing line 3729
Writing line 3730
Writing line 3731
Writing line 3732
Writing line 3733
Writing line 3734
Writing line 3735
Writing line 3736
Writing line 3737
Writing line 3738
Writing line 3739
Writing line 3740
Writing line 3741
Writing line 3742
Writing line 3743
Writing line 3744
Writing line 3745
Writing line 3746
Writing line 3747
Writing line 3748
Writing line 3749
Writing line 3750
Writing line 3751
Writing line 3752
Writing line 3753
Writing line 3754
Writing line 3755
Writing line 3756
Writing line 3757
Writing line 3758
Writing line 3759
Writing line 3760
Writing line 3761
Writing line 3762
Writing line 3763
Writing line 3764
Writing line 3765
Writing line 3766
Writing line 3767
Writing line 3768
Writing line 3769
Writing line 3770
Writing line 3771
Writing line 3772
Writing line 3773
Writing line 3774
Writing line 3775
Writing line 3776
Writing line 3777
Writing line 3778
Writing line 3779
Writing line 3780
Writing line 3781
Writing line 3782
Writing line 3783
Writing line 3784
Writing line 3785
Writing line 3786
Writing line 3787
Writing line 3788
Writing line 3789
Writing line 3790
Writing line 3791
Writing line 3792
Writing line 3793
Writing line 3794
Writing line 3795
Writing line 3796
Writing line 3797
Writing line 3798
Writing line 3799
Writing line 3800
Writing line 3801
Writing line 3802
Writing line 3803
Writing line 3804
Writing line 3805
Writing line 3806
Writing line 3807
Writing line 3808
Writing line 3809
Writing line 3810
Writing line 3811
Writing line 3812
Writing line 3813
Writing line 3814
Writing line 3815
Writing line 3816
Writing line 3817
Writing line 3818
Writing line 3819
Writing line 3820
Writing line 3821
Writing line 3822
Writing line 3823
Writing line 3824
Writing line 3825
Writing line 3826
Writing line 3827
Writing line 3828
Writing line 3829
Writing line 3830
Writing line 3831
Writing line 3832
Writing line 3833
Writing line 3834
Writing line 3835
Writing line 3836
Writing line 3837
Writing line 3838
Writing line 3839
Writing line 3840
Writing line 3841
Writing line 3842
Writing line 3843
Writing line 3844
Writing line 3845
Writing line 3846
Writing line 3847
Writing line 3848
Writing line 3849
Writing line 3850
Writing line 3851
Writing line 3852
Writing line 3853
Writing line 3854
Writing line 3855
Writing line 3856
Writing line 3857
Writing line 3858
Writing line 3859
Writing line 3860
Writing line 3861
Writing line 3862
Writing line 3863
Writing line 3864
Writing line 3865
Writing line 3866
Writing line 3867
Writing line 3868
Writing line 3869
Writing line 3870
Writing line 3871
Writing line 3872
Writing line 3873
Writing line 3874
Writing line 3875
Writing line 3876
Writing line 3877
Writing line 3878
Writing line 3879
Writing line 3880
Writing line 3881
Writing line 3882
Writing line 3883
Writing line 3884
Writing line 3885
Writing line 3886
Writing line 3887
Writing line 3888
Writing line 3889
Writing line 3890
Writing line 3891
Writing line 3892
Writing line 3893
Writing line 3894
Writing line 3895
Writing line 3896
Writing line 3897
Writing line 3898
Writing line 3899
Writing line 3900
Writing line 3901
Writing line 3902
Writing line 3903
Writing line 3904
Writing line 3905
Writing line 3906
Writing line 3907
Writing line 3908
Writing line 3909
Writing line 3910
Writing line 3911
Writing line 3912
Writing line 3913
Writing line 3914
Writing line 3915
Writing line 3916
Writing line 3917
Writing line 3918
Writing line 3919
Writing line 3920
Writing line 3921
Writing line 3922
Writing line 3923
Writing line 3924
Writing line 3925
Writing line 3926
Writing line 3927
Writing line 3928
Writing line 3929
Writing line 3930
Writing line 3931
Writing line 3932
Writing line 3933
Writing line 3934
Writing line 3935
Writing line 3936
Writing line 3937
Writing line 3938
Writing line 3939
Writing line 3940
Writing line 3941
Writing line 3942
Writing line 3943
Writing line 3944
Writing line 3945
Writing line 3946
Writing line 3947
Writing line 3948
Writing line 3949
Writing line 3950
Writing line 3951
Writing line 3952
Writing line 3953
Writing line 3954
Writing line 3955
Writing line 3956
Writing line 3957
Writing line 3958
Writing line 3959
Writing line 3960
Writing line 3961
Writing line 3962
Writing line 3963
Writing line 3964
Writing line 3965
Writing line 3966
Writing line 3967
Writing line 3968
Writing line 3969
Writing line 3970
Writing line 3971
Writing line 3972
Writing line 3973
Writing line 3974
Writing line 3975
Writing line 3976
Writing line 3977
Writing line 3978
Writing line 3979
Writing line 3980
Writing line 3981
Writing line 3982
Writing line 3983
Writing line 3984
Writing line 3985
Writing line 3986
Writing line 3987
Writing line 3988
Writing line 3989
Writing line 3990
Writing line 3991
Writing line 3992
Writing line 3993
Writing line 3994
Writing line 3995
Writing line 3996
Writing line 3997
Writing line 3998
Writing line 3999
Writing line 4000
Writing line 4001
Writing line 4002
Writing line 4003
Writing line 4004
Writing line 4005
Writing line 4006
Writing line 4007
Writing line 4008
Writing line 4009
Writing line 4010
Writing line 4011
Writing line 4012
Writing line 4013
Writing line 4014
Writing line 4015
Writing line 4016
Writing line 4017
Writing line 4018
Writing line 4019
Writing line 4020
Writing line 4021
Writing line 4022
Writing line 4023
Writing line 4024
Writing line 4025
Writing line 4026
Writing line 4027
Writing line 4028
Writing line 4029
Writing line 4030
Writing line 4031
Writing line 4032
Writing line 4033
Writing line 4034
Writing line 4035
Writing line 4036
Writing line 4037
Writing line 4038
Writing line 4039
Writing line 4040
Writing line 4041
Writing line 4042
Writing line 4043
Writing line 4044
Writing line 4045
Writing line 4046
Writing line 4047
Writing line 4048
Writing line 4049
Writing line 4050
Writing line 4051
Writing line 4052
Writing line 4053
Writing line 4054
Writing line 4055
Writing line 4056
Writing line 4057
Writing line 4058
Writing line 4059
Writing line 4060
Writing line 4061
Writing line 4062
Writing line 4063
Writing line 4064
Writing line 4065
Writing line 4066
Writing line 4067
Writing line 4068
Writing line 4069
Writing line 4070
Writing line 4071
Writing line 4072
Writing line 4073
Writing line 4074
Writing line 4075
Writing line 4076
Writing line 4077
Writing line 4078
Writing line 4079
Writing line 4080
Writing line 4081
Writing line 4082
Writing line 4083
Writing line 4084
Writing line 4085
Writing line 4086
Writing line 4087
Writing line 4088
Writing line 4089
Writing line 4090
Writing line 4091
Writing line 4092
Writing line 4093
Writing line 4094
Writing line 4095
Writing line 4096
Writing line 4097
Writing line 4098
Writing line 4099
Writing line 4100
Writing line 4101
Writing line 4102
Writing line 4103
Writing line 4104
Writing line 4105
Writing line 4106
Writing line 4107
Writing line 4108
Writing line 4109
Writing line 4110
Writing line 4111
Writing line 4112
Writing line 4113
Writing line 4114
Writing line 4115
Writing line 4116
Writing line 4117
Writing line 4118
Writing line 4119
Writing line 4120
Writing line 4121
Writing line 4122
Writing line 4123
Writing line 4124
Writing line 4125
Writing line 4126
Writing line 4127
Writing line 4128
Writing line 4129
Writing line 4130
Writing line 4131
Writing line 4132
Writing line 4133
Writing line 4134
Writing line 4135
Writing line 4136
Writing line 4137
Writing line 4138
Writing line 4139
Writing line 4140
Writing line 4141
Writing line 4142
Writing line 4143
Writing line 4144
Writing line 4145
Writing line 4146
Writing line 4147
Writing line 4148
Writing line 4149
Writing line 4150
Writing line 4151
Writing line 4152
Writing line 4153
Writing line 4154
Writing line 4155
Writing line 4156
Writing line 4157
Writing line 4158
Writing line 4159
Writing line 4160
Writing line 4161
Writing line 4162
Writing line 4163
Writing line 4164
Writing line 4165
Writing line 4166
Writing line 4167
Writing line 4168
Writing line 4169
Writing line 4170
Writing line 4171
Writing line 4172
Writing line 4173
Writing line 4174
Writing line 4175
Writing line 4176
Writing line 4177
Writing line 4178
Writing line 4179
Writing line 4180
Writing line 4181
Writing line 4182
Writing line 4183
Writing line 4184
Writing line 4185
Writing line 4186
Writing line 4187
Writing line 4188
Writing line 4189
Writing line 4190
Writing line 4191
Writing line 4192
Writing line 4193
Writing line 4194
Writing line 4195
Writing line 4196
Writing line 4197
Writing line 4198
Writing line 4199
Writing line 4200
Writing line 4201
Writing line 4202
Writing line 4203
Writing line 4204
Writing line 4205
Writing line 4206
Writing line 4207
Writing line 4208
Writing line 4209
Writing line 4210
Writing line 4211
Writing line 4212
Writing line 4213
Writing line 4214
Writing line 4215
Writing line 4216
Writing line 4217
Writing line 4218
Writing line 4219
Writing line 4220
Writing line 4221
Writing line 4222
Writing line 4223
Writing line 4224
Writing line 4225
Writing line 4226
Writing line 4227
Writing line 4228
Writing line 4229
Writing line 4230
Writing line 4231
Writing line 4232
Writing line 4233
Writing line 4234
Writing line 4235
Writing line 4236
Writing line 4237
Writing line 4238
Writing line 4239
Writing line 4240
Writing line 4241
Writing line 4242
Writing line 4243
Writing line 4244
Writing line 4245
Writing line 4246
Writing line 4247
Writing line 4248
Writing line 4249
Writing line 4250
Writing line 4251
Writing line 4252
Writing line 4253
Writing line 4254
Writing line 4255
Writing line 4256
Writing line 4257
Writing line 4258
Writing line 4259
Writing line 4260
Writing line 4261
Writing line 4262
Writing line 4263
Writing line 4264
Writing line 4265
Writing line 4266
Writing line 4267
Writing line 4268
Writing line 4269
Writing line 4270
Writing line 4271
Writing line 4272
Writing line 4273
Writing line 4274
Writing line 4275
Writing line 4276
Writing line 4277
Writing line 4278
Writing line 4279
Writing line 4280
Writing line 4281
Writing line 4282
Writing line 4283
Writing line 4284
Writing line 4285
Writing line 4286
Writing line 4287
Writing line 4288
Writing line 4289
Writing line 4290
Writing line 4291
Writing line 4292
Writing line 4293
Writing line 4294
Writing line 4295
Writing line 4296
Writing line 4297
Writing line 4298
Writing line 4299
Writing line 4300
Writing line 4301
Writing line 4302
Writing line 4303
Writing line 4304
Writing line 4305
Writing line 4306
Writing line 4307
Writing line 4308
Writing line 4309
Writing line 4310
Writing line 4311
Writing line 4312
Writing line 4313
Writing line 4314
Writing line 4315
Writing line 4316
Writing line 4317
Writing line 4318
Writing line 4319
Writing line 4320
Writing line 4321
Writing line 4322
Writing line 4323
Writing line 4324
Writing line 4325
Writing line 4326
Writing line 4327
Writing line 4328
Writing line 4329
Writing line 4330
Writing line 4331
Writing line 4332
Writing line 4333
Writing line 4334
Writing line 4335
Writing line 4336
Writing line 4337
Writing line 4338
Writing line 4339
Writing line 4340
Writing line 4341
Writing line 4342
Writing line 4343
Writing line 4344
Writing line 4345
Writing line 4346
Writing line 4347
Writing line 4348
Writing line 4349
Writing line 4350
Writing line 4351
Writing line 4352
Writing line 4353
Writing line 4354
Writing line 4355
Writing line 4356
Writing line 4357
Writing line 4358
Writing line 4359
Writing line 4360
Writing line 4361
Writing line 4362
Writing line 4363
Writing line 4364
Writing line 4365
Writing line 4366
Writing line 4367
Writing line 4368
Writing line 4369
Writing line 4370
Writing line 4371
Writing line 4372
Writing line 4373
Writing line 4374
Writing line 4375
Writing line 4376
Writing line 4377
Writing line 4378
Writing line 4379
Writing line 4380
Writing line 4381
Writing line 4382
Writing line 4383
Writing line 4384
Writing line 4385
Writing line 4386
Writing line 4387
Writing line 4388
Writing line 4389
Writing line 4390
Writing line 4391
Writing line 4392
Writing line 4393
Writing line 4394
Writing line 4395
Writing line 4396
Writing line 4397
Writing line 4398
Writing line 4399
Writing line 4400
Writing line 4401
Writing line 4402
Writing line 4403
Writing line 4404
Writing line 4405
Writing line 4406
Writing line 4407
Writing line 4408
Writing line 4409
Writing line 4410
Writing line 4411
Writing line 4412
Writing line 4413
Writing line 4414
Writing line 4415
Writing line 4416
Writing line 4417
Writing line 4418
Writing line 4419
Writing line 4420
Writing line 4421
Writing line 4422
Writing line 4423
Writing line 4424
Writing line 4425
Writing line 4426
Writing line 4427
Writing line 4428
Writing line 4429
Writing line 4430
Writing line 4431
Writing line 4432
Writing line 4433
Writing line 4434
Writing line 4435
Writing line 4436
Writing line 4437
Writing line 4438
Writing line 4439
Writing line 4440
Writing line 4441
Writing line 4442
Writing line 4443
Writing line 4444
Writing line 4445
Writing line 4446
Writing line 4447
Writing line 4448
Writing line 4449
Writing line 4450
Writing line 4451
Writing line 4452
Writing line 4453
Writing line 4454
Writing line 4455
Writing line 4456
Writing line 4457
Writing line 4458
Writing line 4459
Writing line 4460
Writing line 4461
Writing line 4462
Writing line 4463
Writing line 4464
Writing line 4465
Writing line 4466
Writing line 4467
Writing line 4468
Writing line 4469
Writing line 4470
Writing line 4471
Writing line 4472
Writing line 4473
Writing line 4474
Writing line 4475
Writing line 4476
Writing line 4477
Writing line 4478
Writing line 4479
Writing line 4480
Writing line 4481
Writing line 4482
Writing line 4483
Writing line 4484
Writing line 4485
Writing line 4486
Writing line 4487
Writing line 4488
Writing line 4489
Writing line 4490
Writing line 4491
Writing line 4492
Writing line 4493
Writing line 4494
Writing line 4495
Writing line 4496
Writing line 4497
Writing line 4498
Writing line 4499
Writing line 4500
Writing line 4501
Writing line 4502
Writing line 4503
Writing line 4504
Writing line 4505
Writing line 4506
Writing line 4507
Writing line 4508
Writing line 4509
Writing line 4510
Writing line 4511
Writing line 4512
Writing line 4513
Writing line 4514
Writing line 4515
Writing line 4516
Writing line 4517
Writing line 4518
Writing line 4519
Writing line 4520
Writing line 4521
Writing line 4522
Writing line 4523
Writing line 4524
Writing line 4525
Writing line 4526
Writing line 4527
Writing line 4528
Writing line 4529
Writing line 4530
Writing line 4531
Writing line 4532
Writing line 4533
Writing line 4534
Writing line 4535
Writing line 4536
Writing line 4537
Writing line 4538
Writing line 4539
Writing line 4540
Writing line 4541
Writing line 4542
Writing line 4543
Writing line 4544
Writing line 4545
Writing line 4546
Writing line 4547
Writing line 4548
Writing line 4549
Writing line 4550
Writing line 4551
Writing line 4552
Writing line 4553
Writing line 4554
Writing line 4555
Writing line 4556
Writing line 4557
Writing line 4558
Writing line 4559
Writing line 4560
Writing line 4561
Writing line 4562
Writing line 4563
Writing line 4564
Writing line 4565
Writing line 4566
Writing line 4567
Writing line 4568
Writing line 4569
Writing line 4570
Writing line 4571
Writing line 4572
Writing line 4573
Writing line 4574
Writing line 4575
Writing line 4576
Writing line 4577
Writing line 4578
Writing line 4579
Writing line 4580
Writing line 4581
Writing line 4582
Writing line 4583
Writing line 4584
Writing line 4585
Writing line 4586
Writing line 4587
Writing line 4588
Writing line 4589
Writing line 4590
Writing line 4591
Writing line 4592
Writing line 4593
Writing line 4594
Writing line 4595
Writing line 4596
Writing line 4597
Writing line 4598
Writing line 4599
Writing line 4600
Writing line 4601
Writing line 4602
Writing line 4603
Writing line 4604
Writing line 4605
Writing line 4606
Writing line 4607
Writing line 4608
Writing line 4609
Writing line 4610
Writing line 4611
Writing line 4612
Writing line 4613
Writing line 4614
Writing line 4615
Writing line 4616
Writing line 4617
Writing line 4618
Writing line 4619
Writing line 4620
Writing line 4621
Writing line 4622
Writing line 4623
Writing line 4624
Writing line 4625
Writing line 4626
Writing line 4627
Writing line 4628
Writing line 4629
Writing line 4630
Writing line 4631
Writing line 4632
Writing line 4633
Writing line 4634
Writing line 4635
Writing line 4636
Writing line 4637
Writing line 4638
Writing line 4639
Writing line 4640
Writing line 4641
Writing line 4642
Writing line 4643
Writing line 4644
Writing line 4645
Writing line 4646
Writing line 4647
Writing line 4648
Writing line 4649
Writing line 4650
Writing line 4651
Writing line 4652
Writing line 4653
Writing line 4654
Writing line 4655
Writing line 4656
Writing line 4657
Writing line 4658
Writing line 4659
Writing line 4660
Writing line 4661
Writing line 4662
Writing line 4663
Writing line 4664
Writing line 4665
Writing line 4666
Writing line 4667
Writing line 4668
Writing line 4669
Writing line 4670
Writing line 4671
Writing line 4672
Writing line 4673
Writing line 4674
Writing line 4675
Writing line 4676
Writing line 4677
Writing line 4678
Writing line 4679
Writing line 4680
Writing line 4681
Writing line 4682
Writing line 4683
Writing line 4684
Writing line 4685
Writing line 4686
Writing line 4687
Writing line 4688
Writing line 4689
Writing line 4690
Writing line 4691
Writing line 4692
Writing line 4693
Writing line 4694
Writing line 4695
Writing line 4696
Writing line 4697
Writing line 4698
Writing line 4699
Writing line 4700
Writing line 4701
Writing line 4702
Writing line 4703
Writing line 4704
Writing line 4705
Writing line 4706
Writing line 4707
Writing line 4708
Writing line 4709
Writing line 4710
Writing line 4711
Writing line 4712
Writing line 4713
Writing line 4714
Writing line 4715
Writing line 4716
Writing line 4717
Writing line 4718
Writing line 4719
Writing line 4720
Writing line 4721
Writing line 4722
Writing line 4723
Writing line 4724
Writing line 4725
Writing line 4726
Writing line 4727
Writing line 4728
Writing line 4729
Writing line 4730
Writing line 4731
Writing line 4732
Writing line 4733
Writing line 4734
Writing line 4735
Writing line 4736
Writing line 4737
Writing line 4738
Writing line 4739
Writing line 4740
Writing line 4741
Writing line 4742
Writing line 4743
Writing line 4744
Writing line 4745
Writing line 4746
Writing line 4747
Writing line 4748
Writing line 4749
Writing line 4750
Writing line 4751
Writing line 4752
Writing line 4753
Writing line 4754
Writing line 4755
Writing line 4756
Writing line 4757
Writing line 4758
Writing line 4759
Writing line 4760
Writing line 4761
Writing line 4762
Writing line 4763
Writing line 4764
Writing line 4765
Writing line 4766
Writing line 4767
Writing line 4768
Writing line 4769
Writing line 4770
Writing line 4771
Writing line 4772
Writing line 4773
Writing line 4774
Writing line 4775
Writing line 4776
Writing line 4777
Writing line 4778
Writing line 4779
Writing line 4780
Writing line 4781
Writing line 4782
Writing line 4783
Writing line 4784
Writing line 4785
Writing line 4786
Writing line 4787
Writing line 4788
Writing line 4789
Writing line 4790
Writing line 4791
Writing line 4792
Writing line 4793
Writing line 4794
Writing line 4795
Writing line 4796
Writing line 4797
Writing line 4798
Writing line 4799
Writing line 4800
Writing line 4801
Writing line 4802
Writing line 4803
Writing line 4804
Writing line 4805
Writing line 4806
Writing line 4807
Writing line 4808
Writing line 4809
Writing line 4810
Writing line 4811
Writing line 4812
Writing line 4813
Writing line 4814
Writing line 4815
Writing line 4816
Writing line 4817
Writing line 4818
Writing line 4819
Writing line 4820
Writing line 4821
Writing line 4822
Writing line 4823
Writing line 4824
Writing line 4825
Writing line 4826
Writing line 4827
Writing line 4828
Writing line 4829
Writing line 4830
Writing line 4831
Writing line 4832
Writing line 4833
Writing line 4834
Writing line 4835
Writing line 4836
Writing line 4837
Writing line 4838
Writing line 4839
Writing line 4840
Writing line 4841
Writing line 4842
Writing line 4843
Writing line 4844
Writing line 4845
Writing line 4846
Writing line 4847
Writing line 4848
Writing line 4849
Writing line 4850
Writing line 4851
Writing line 4852
Writing line 4853
Writing line 4854
Writing line 4855
Writing line 4856
Writing line 4857
Writing line 4858
Writing line 4859
Writing line 4860
Writing line 4861
Writing line 4862
Writing line 4863
Writing line 4864
Writing line 4865
Writing line 4866
Writing line 4867
Writing line 4868
Writing line 4869
Writing line 4870
Writing line 4871
Writing line 4872
Writing line 4873
Writing line 4874
Writing line 4875
Writing line 4876
Writing line 4877
Writing line 4878
Writing line 4879
Writing line 4880
Writing line 4881
Writing line 4882
Writing line 4883
Writing line 4884
Writing line 4885
Writing line 4886
Writing line 4887
Writing line 4888
Writing line 4889
Writing line 4890
Writing line 4891
Writing line 4892
Writing line 4893
Writing line 4894
Writing line 4895
Writing line 4896
Writing line 4897
Writing line 4898
Writing line 4899
Writing line 4900
Writing line 4901
Writing line 4902
Writing line 4903
Writing line 4904
Writing line 4905
Writing line 4906
Writing line 4907
Writing line 4908
Writing line 4909
Writing line 4910
Writing line 4911
Writing line 4912
Writing line 4913
Writing line 4914
Writing line 4915
Writing line 4916
Writing line 4917
Writing line 4918
Writing line 4919
Writing line 4920
Writing line 4921
Writing line 4922
Writing line 4923
Writing line 4924
Writing line 4925
Writing line 4926
Writing line 4927
Writing line 4928
Writing line 4929
Writing line 4930
Writing line 4931
Writing line 4932
Writing line 4933
Writing line 4934
Writing line 4935
Writing line 4936
Writing line 4937
Writing line 4938
Writing line 4939
Writing line 4940
Writing line 4941
Writing line 4942
Writing line 4943
Writing line 4944
Writing line 4945
Writing line 4946
Writing line 4947
Writing line 4948
Writing line 4949
Writing line 4950
Writing line 4951
Writing line 4952
Writing line 4953
Writing line 4954
Writing line 4955
Writing line 4956
Writing line 4957
Writing line 4958
Writing line 4959
Writing line 4960
Writing line 4961
Writing line 4962
Writing line 4963
Writing line 4964
Writing line 4965
Writing line 4966
Writing line 4967
Writing line 4968
Writing line 4969
Writing line 4970
Writing line 4971
Writing line 4972
Writing line 4973
Writing line 4974
Writing line 4975
Writing line 4976
Writing line 4977
Writing line 4978
Writing line 4979
Writing line 4980
Writing line 4981
Writing line 4982
Writing line 4983
Writing line 4984
Writing line 4985
Writing line 4986
Writing line 4987
Writing line 4988
Writing line 4989
Writing line 4990
Writing line 4991
Writing line 4992
Writing line 4993
Writing line 4994
Writing line 4995
Writing line 4996
Writing line 4997
Writing line 4998
Writing line 4999
Writing line 5000
